# 
# Wavefront material file
# Created with Kaydara FBX
# 

newmtl Barrel_color1
Ka 0.000000 0.000000 0.000000
Kd 0.254831 0.128808 0.059785
Ks 0.250000 0.250000 0.250000
illum 2
Ns 9.607843
Tr 1.000000

newmtl Barrel_color2
Ka 0.000000 0.000000 0.000000
Kd 0.640000 0.640000 0.640000
Ks 0.250000 0.250000 0.250000
illum 2
Ns 9.607843
Tr 1.000000

newmtl Barrel_color3
Ka 0.000000 0.000000 0.000000
Kd 0.095420 0.050619 0.030191
Ks 0.250000 0.250000 0.250000
illum 2
Ns 9.607843
Tr 1.000000
