# 
# Wavefront OBJ file
# Created with Kaydara FBX
# 
mtllib birch1.mtl

g Birch1
v 0.066503 -0.543462 -13.947445
v 12.699160 118.199261 -25.223081
v 9.923950 -0.448499 -9.771582
v 20.611864 119.499477 -22.071587
v 13.943884 -0.575646 0.150110
v 23.797861 122.351596 -14.591744
v 9.771478 -0.850422 10.005645
v 20.390835 125.084935 -7.165136
v -0.149124 -1.111871 14.021787
v 12.386575 126.098322 -4.142179
v -10.006572 -1.206810 9.845928
v 4.473867 124.798106 -7.293676
v -14.026503 -1.079663 -0.075767
v 1.287870 121.945963 -14.773523
v -9.854101 -0.804911 -9.931304
v 4.694896 119.212648 -22.200127
v -7.695393 303.443213 -24.333208
v -0.651420 302.692290 -23.001944
v 2.227445 300.596663 -17.732335
v 0.253380 298.411820 -12.095165
v -5.417243 297.417615 -9.392589
v -11.462647 298.196457 -11.207763
v -14.341509 300.292084 -16.477363
v -12.367445 302.476927 -22.114544
v 7.177123 414.001893 -5.617518
v 10.430208 414.033269 -4.239430
v 11.756839 413.991308 -0.965142
v 10.379891 413.900614 2.287310
v 7.105963 413.814355 3.612688
v 3.852879 413.783026 2.234600
v 2.526250 413.824987 -1.039685
v 3.903196 413.915633 -4.292142
v -13.292682 292.320129 -17.604825
v -10.463081 292.741080 -23.407403
v 1.517223 290.521022 -23.030346
v 3.650026 289.180491 -17.071595
v -5.314047 289.504717 -9.021692
v -11.159882 290.979574 -11.646078
v -5.327181 291.967960 -25.170824
v 0.820422 288.759516 -11.269026
v -0.038324 223.772450 -23.812587
v 17.045543 232.110354 -19.128316
v 0.448790 224.289225 -9.980184
v 5.295753 228.929038 -27.431618
v 16.578406 228.271506 -12.069953
v -1.789537 220.813725 -14.825386
v 12.372112 232.382746 -25.491320
v 12.240016 223.409771 -8.433817
v 6.041650 63.288704 -14.733483
v 14.763924 61.734502 -11.987184
v 18.907687 60.629933 -3.891306
v 16.045582 60.622103 4.811710
v 7.854186 61.715575 9.023742
v -0.868088 63.269801 6.277444
v -5.011854 64.374345 -1.818438
v -2.149745 64.382176 -10.521450
v 3.586568 355.888770 -9.995333
v 8.036359 356.420491 -11.996385
v 4.004849 353.721142 -1.319671
v 1.916667 354.770659 -5.572892
v 13.077679 353.886723 -1.728196
v 8.627893 353.354955 0.272856
v 12.659402 356.054328 -10.403859
v 14.747587 355.004810 -6.150634
v -1.769218 310.463924 -28.810021
v -5.070297 311.422725 -28.187835
v -2.041011 305.979151 -31.980853
v -5.244347 307.415313 -31.483772
v -18.029000 380.598847 -52.070662
v -20.075457 380.694786 -51.173397
v -18.562312 379.872623 -56.513365
v -20.603891 380.295005 -55.454835
v -6.125112 337.066596 -42.510457
v -6.900629 334.498636 -47.676001
v -2.960266 336.267560 -43.712173
v -3.805422 333.290641 -48.801569
v 0.286048 212.588068 -24.541487
v 3.662250 168.150838 -27.582968
v 18.307665 215.953848 -16.983085
v 22.113007 174.624881 -19.732846
v 0.378531 208.218788 -9.110313
v 5.389126 169.528518 -11.220756
v 6.044053 214.823742 -27.249929
v 9.773412 177.899630 -30.946188
v 15.910760 215.977548 -9.413716
v 19.945911 175.348936 -12.174798
v 1.521707 167.038974 -19.216288
v -1.683619 211.888287 -15.755923
v 18.252102 172.152550 -28.573711
v 14.220749 215.475961 -24.371087
v 12.999043 174.161087 -8.280050
v 10.648704 209.319066 -6.382162
v 8.365127 220.990610 -1.046500
v 8.944380 226.669358 -5.672136
v 0.247538 226.255797 -7.568443
v -1.081906 223.512744 -3.609114
v -0.663205 256.411531 16.099140
v 2.034499 260.872247 13.677262
v -2.780914 262.624933 10.707256
v -5.725440 257.591035 13.220304
v 5.029808 292.758661 31.507090
v 6.608398 296.091490 28.974574
v 2.566948 296.768765 26.863413
v 0.848648 292.989664 29.545131
v 24.772444 342.606479 39.369402
v 25.980228 345.156413 37.431768
v 22.888103 345.674592 35.816515
v 21.573424 342.783195 37.868301
v 1.003769 188.405223 -25.909761
v 19.901875 187.147698 -18.713323
v 2.262962 187.259553 -10.879621
v 7.736246 188.667281 -29.250656
v 17.932542 187.195275 -11.913007
v -0.936049 188.084719 -17.804901
v 15.684962 187.774618 -26.740149
v 10.211666 186.366855 -8.369121
v 20.269951 190.815647 -27.747027
v 25.347027 186.960132 -28.339914
v 27.586362 186.362668 -22.866721
v 22.276917 190.216287 -22.494487
v 36.129972 223.728676 -29.211495
v 41.936079 221.042557 -30.312440
v 43.996838 220.476838 -25.617650
v 37.987807 223.148986 -24.706355
v 43.141708 263.958208 -49.318181
v 48.649162 261.410252 -50.362487
v 50.603920 260.873644 -45.909164
v 44.903985 263.408320 -45.044766
v 54.360986 318.450395 -53.392891
v 57.746875 317.649189 -54.412089
v 58.947527 317.695848 -51.852022
v 55.441362 318.644825 -51.019840
v -13.224506 424.402943 -56.809530
v -15.324433 424.465361 -55.953029
v -13.992979 423.665275 -61.270777
v -16.249312 424.027767 -60.287354
v -0.267996 266.251996 15.211280
v 31.059742 295.643956 42.560559
v -3.708544 295.243010 54.521280
v -25.428686 309.571914 27.021089
v -4.242025 326.423026 6.376853
v 30.828109 310.220386 7.668602
v 20.089185 357.056129 70.242520
v -14.822252 365.664134 60.638350
v -15.053880 380.240588 25.746388
v 20.063964 389.976574 8.502158
v 41.434547 366.312630 41.285860
v 13.077682 409.587249 52.458506
v 1.146408 325.987790 -14.963081
v 60.813886 377.623896 22.558327
v -27.543968 375.475866 36.553909
v -57.412934 388.953657 -30.322958
v -15.339054 388.136255 -79.405699
v 58.506542 383.980670 -55.980048
v 14.991400 524.451071 37.759040
v -32.500246 514.624742 17.708560
v -55.042762 504.085768 -66.532235
v 21.545789 525.267159 -81.625291
v 75.734931 497.656200 -15.534515
v 1.328803 605.483384 -30.270368
v 44.089285 243.997568 -38.062407
v 96.109623 287.342069 -18.406942
v 39.230731 290.205503 1.186924
v 3.059674 301.531283 -47.892557
v 37.585059 305.667313 -97.818931
v 95.092553 296.897923 -79.595429
v 76.065719 395.447994 1.797976
v 18.558234 404.217384 -16.425538
v 4.447426 409.652650 -73.577811
v 78.894776 395.310147 -104.299574
v 96.803647 420.305959 -52.998653
v 62.661326 471.816627 -46.903857
v 12.617463 144.216966 -5.702068
v 12.680763 149.184429 -6.129734
v 20.124759 155.144249 -10.161056
v 20.234391 142.758773 -8.926635
v 4.544744 126.328548 -22.982824
v 12.273739 126.880045 -26.055258
v 1.321872 128.502748 -15.419528
v 20.268741 127.155539 -23.017034
v 8.165786 86.818662 -18.124538
v 10.173225 99.554279 -20.231674
v 18.358061 99.777904 -17.217766
v 16.612117 86.550811 -15.236413
v 21.877477 100.531970 -9.548306
v 20.439273 86.619322 -7.348822
v 18.669857 101.374733 -1.715945
v 17.405370 86.984068 0.917801
v 10.614170 101.812518 1.691215
v 9.287615 87.431378 4.720975
v 2.429331 101.588893 -1.322686
v 0.841286 87.699229 1.832851
v -1.090091 100.834833 -8.992157
v -2.985876 87.630694 -6.054743
v 2.117534 99.992064 -16.824512
v 0.048033 87.265948 -14.321362
v -6.408593 253.782747 -16.327908
v -8.911499 263.534495 -16.804053
v 8.643602 256.016107 -24.555886
v 6.044478 263.838383 -23.395119
v 5.279978 252.199791 -8.838557
v 0.644393 261.375927 -8.697291
v -6.098897 264.463707 -23.516489
v -3.863703 255.181952 -24.087021
v 8.698858 262.557361 -17.264603
v 12.153473 254.776761 -18.255356
v -6.976406 262.870191 -11.173019
v -4.337294 253.776835 -11.026326
v -0.761517 264.654561 -25.686173
v 1.670793 256.197234 -26.822156
v 6.323291 261.535357 -11.184362
v 10.482654 253.191898 -11.760617
v 1.015772 249.824383 12.910605
v -4.861894 251.253583 10.090579
v -2.217721 255.861474 7.308568
v 3.319512 254.511620 10.078902
v 45.345464 228.722544 -29.759507
v 39.399520 231.366654 -28.857784
v 37.561193 231.940240 -33.315628
v 43.306336 229.282302 -34.405004
v 13.935661 55.473820 -11.410638
v 18.070491 54.439777 -3.183053
v 15.113866 54.412694 5.603098
v 6.797732 55.408414 9.801004
v -2.006429 56.843681 6.951582
v -6.141263 57.877713 -1.276006
v -3.184632 57.904808 -10.062158
v 5.131500 56.909088 -14.260060
v -4.339690 72.090178 -3.223930
v 0.114610 77.313978 3.722302
v -9.508282 38.509777 0.341103
v -7.475290 31.049587 -8.157927
v -14.121725 11.972180 2.556842
v -10.066772 14.829482 -7.007805
v 4.595690 42.261963 11.421099
v 13.589196 44.251530 6.898138
v -2.149334 -18.696773 -15.038255
v 8.953112 -17.832433 -12.461498
v 14.971155 -17.148433 -2.767871
v 12.379500 -17.045505 8.364234
v 2.696307 -17.583854 14.413786
v -8.406140 -18.448193 11.837033
v -14.424182 -19.132217 2.143403
v -11.832525 -19.235192 -8.988704
vn 0.366493 -0.273838 -0.889211
vn 0.366493 -0.273838 -0.889211
vn 0.366493 -0.273838 -0.889211
vn 0.366493 -0.273838 -0.889211
vn 0.366493 -0.273838 -0.889211
vn 0.366493 -0.273838 -0.889211
vn 0.914787 -0.178279 -0.362466
vn 0.914787 -0.178279 -0.362466
vn 0.914787 -0.178279 -0.362466
vn 0.914787 -0.178279 -0.362466
vn 0.914787 -0.178279 -0.362466
vn 0.914787 -0.178279 -0.362466
vn 0.918843 0.017368 0.394241
vn 0.918843 0.017368 0.394241
vn 0.918843 0.017368 0.394241
vn 0.918843 0.017368 0.394241
vn 0.918843 0.017368 0.394241
vn 0.918843 0.017368 0.394241
vn 0.379645 0.185428 0.906359
vn 0.379645 0.185428 0.906359
vn 0.379645 0.185428 0.906359
vn 0.379645 0.185428 0.906359
vn 0.379645 0.185428 0.906359
vn 0.379645 0.185428 0.906359
vn -0.366834 0.252046 0.895492
vn -0.366834 0.252046 0.895492
vn -0.366834 0.252046 0.895492
vn -0.366834 0.252046 0.895492
vn -0.366834 0.252046 0.895492
vn -0.366834 0.252046 0.895492
vn -0.914030 0.186701 0.360127
vn -0.914030 0.186701 0.360127
vn -0.914030 0.186701 0.360127
vn -0.914030 0.186701 0.360127
vn -0.914030 0.186701 0.360127
vn -0.914030 0.186701 0.360127
vn -0.909672 -0.096496 -0.403962
vn -0.909672 -0.096496 -0.403962
vn -0.909672 -0.096496 -0.403962
vn -0.909672 -0.096496 -0.403962
vn -0.909672 -0.096496 -0.403962
vn -0.909672 -0.096496 -0.403962
vn -0.917282 0.002538 -0.398230
vn -0.917282 0.002538 -0.398230
vn -0.917282 0.002538 -0.398230
vn -0.917282 0.002538 -0.398230
vn -0.917282 0.002538 -0.398230
vn -0.917282 0.002538 -0.398230
vn -0.379700 -0.196337 -0.904035
vn -0.379700 -0.196337 -0.904035
vn -0.379700 -0.196337 -0.904035
vn -0.379700 -0.196337 -0.904035
vn -0.379700 -0.196337 -0.904035
vn -0.379700 -0.196337 -0.904035
vn 0.949767 0.062705 0.306612
vn 0.949767 0.062705 0.306612
vn 0.949767 0.062705 0.306612
vn 0.949767 0.062705 0.306612
vn 0.949767 0.062705 0.306612
vn 0.949767 0.062705 0.306612
vn -0.400118 0.093402 -0.911692
vn -0.400118 0.093402 -0.911692
vn -0.400118 0.093402 -0.911692
vn -0.400118 0.093402 -0.911692
vn -0.400118 0.093402 -0.911692
vn -0.400118 0.093402 -0.911692
vn 0.919617 0.130076 -0.370656
vn 0.919617 0.130076 -0.370656
vn 0.919617 0.130076 -0.370656
vn 0.919617 0.130076 -0.370656
vn 0.919617 0.130076 -0.370656
vn 0.919617 0.130076 -0.370656
vn -0.351996 -0.013615 0.935902
vn -0.351996 -0.013615 0.935902
vn -0.351996 -0.013615 0.935902
vn -0.351996 -0.013615 0.935902
vn -0.351996 -0.013615 0.935902
vn -0.351996 -0.013615 0.935902
vn -0.376418 0.017216 -0.926290
vn -0.376418 0.017216 -0.926290
vn -0.376418 0.017216 -0.926290
vn -0.376418 0.017216 -0.926290
vn -0.376418 0.017216 -0.926290
vn -0.376418 0.017216 -0.926290
vn -0.937966 -0.041007 -0.344292
vn -0.937966 -0.041007 -0.344292
vn -0.937966 -0.041007 -0.344292
vn -0.937966 -0.041007 -0.344292
vn -0.937966 -0.041007 -0.344292
vn -0.937966 -0.041007 -0.344292
vn 0.906408 0.114296 0.406646
vn 0.906408 0.114296 0.406646
vn 0.906408 0.114296 0.406646
vn 0.906408 0.114296 0.406646
vn 0.906408 0.114296 0.406646
vn 0.906408 0.114296 0.406646
vn -0.919718 -0.120363 0.373673
vn -0.919718 -0.120363 0.373673
vn -0.919718 -0.120363 0.373673
vn -0.919718 -0.120363 0.373673
vn -0.919718 -0.120363 0.373673
vn -0.919718 -0.120363 0.373673
vn 0.384138 0.077356 0.920029
vn 0.384138 0.077356 0.920029
vn 0.384138 0.077356 0.920029
vn 0.384138 0.077356 0.920029
vn 0.384138 0.077356 0.920029
vn 0.384138 0.077356 0.920029
vn -0.018172 0.999631 0.020172
vn -0.018172 0.999631 0.020172
vn -0.018172 0.999631 0.020172
vn -0.018172 0.999631 0.020172
vn -0.018172 0.999631 0.020172
vn -0.018172 0.999631 0.020172
vn -0.018172 0.999631 0.020172
vn -0.018172 0.999631 0.020172
vn -0.018172 0.999631 0.020172
vn -0.018172 0.999631 0.020172
vn -0.018172 0.999631 0.020172
vn -0.018172 0.999631 0.020172
vn -0.018172 0.999631 0.020172
vn -0.018172 0.999631 0.020172
vn -0.018172 0.999631 0.020172
vn -0.018172 0.999631 0.020172
vn -0.018172 0.999631 0.020172
vn -0.018172 0.999631 0.020172
vn -0.911729 -0.024339 0.410072
vn -0.911729 -0.024339 0.410072
vn -0.911729 -0.024339 0.410072
vn -0.911729 -0.024339 0.410072
vn -0.911729 -0.024339 0.410072
vn -0.911729 -0.024339 0.410072
vn 0.398037 -0.042008 0.916407
vn 0.398037 -0.042008 0.916407
vn 0.398037 -0.042008 0.916407
vn 0.398037 -0.042008 0.916407
vn 0.398037 -0.042008 0.916407
vn 0.398037 -0.042008 0.916407
vn 0.912075 0.079732 -0.402197
vn 0.912075 0.079732 -0.402197
vn 0.912075 0.079732 -0.402197
vn 0.912075 0.079732 -0.402197
vn 0.912075 0.079732 -0.402197
vn 0.912075 0.079732 -0.402197
vn -0.930825 0.039132 -0.363364
vn -0.930825 0.039132 -0.363364
vn -0.930825 0.039132 -0.363364
vn -0.930825 0.039132 -0.363364
vn -0.930825 0.039132 -0.363364
vn -0.930825 0.039132 -0.363364
vn -0.354470 -0.058307 0.933248
vn -0.354470 -0.058307 0.933248
vn -0.354470 -0.058307 0.933248
vn -0.354470 -0.058307 0.933248
vn -0.354470 -0.058307 0.933248
vn -0.354470 -0.058307 0.933248
vn 0.928474 0.015693 0.371067
vn 0.928474 0.015693 0.371067
vn 0.928474 0.015693 0.371067
vn 0.928474 0.015693 0.371067
vn 0.928474 0.015693 0.371067
vn 0.928474 0.015693 0.371067
vn 0.354848 0.110255 -0.928400
vn 0.354848 0.110255 -0.928400
vn 0.354848 0.110255 -0.928400
vn 0.354848 0.110255 -0.928400
vn 0.354848 0.110255 -0.928400
vn 0.354848 0.110255 -0.928400
vn 0.374279 0.084322 0.923474
vn 0.374279 0.084322 0.923474
vn 0.374279 0.084322 0.923474
vn 0.374279 0.084322 0.923474
vn 0.374279 0.084322 0.923474
vn 0.374279 0.084322 0.923474
vn -0.942002 -0.134923 0.307293
vn -0.942002 -0.134923 0.307293
vn -0.942002 -0.134923 0.307293
vn -0.942002 -0.134923 0.307293
vn -0.942002 -0.134923 0.307293
vn -0.942002 -0.134923 0.307293
vn 0.893989 0.174352 0.412777
vn 0.893989 0.174352 0.412777
vn 0.893989 0.174352 0.412777
vn 0.893989 0.174352 0.412777
vn 0.893989 0.174352 0.412777
vn 0.893989 0.174352 0.412777
vn 0.318379 0.069025 -0.945447
vn 0.318379 0.069025 -0.945447
vn 0.318379 0.069025 -0.945447
vn 0.318379 0.069025 -0.945447
vn 0.318379 0.069025 -0.945447
vn 0.318379 0.069025 -0.945447
vn -0.353442 -0.046280 -0.934311
vn -0.353442 -0.046280 -0.934311
vn -0.353442 -0.046280 -0.934311
vn -0.353442 -0.046280 -0.934311
vn -0.353442 -0.046280 -0.934311
vn -0.353442 -0.046280 -0.934311
vn -0.363773 -0.052415 0.930012
vn -0.363773 -0.052415 0.930012
vn -0.363773 -0.052415 0.930012
vn -0.363773 -0.052415 0.930012
vn -0.363773 -0.052415 0.930012
vn -0.363773 -0.052415 0.930012
vn 0.928269 0.170218 -0.330670
vn 0.928269 0.170218 -0.330670
vn 0.928269 0.170218 -0.330670
vn 0.928269 0.170218 -0.330670
vn 0.928269 0.170218 -0.330670
vn 0.928269 0.170218 -0.330670
vn -0.896486 -0.142479 -0.419538
vn -0.896486 -0.142479 -0.419538
vn -0.896486 -0.142479 -0.419538
vn -0.896486 -0.142479 -0.419538
vn -0.896486 -0.142479 -0.419538
vn -0.896486 -0.142479 -0.419538
vn -0.978608 -0.003965 -0.205696
vn -0.978608 -0.003965 -0.205696
vn -0.978608 -0.003965 -0.205696
vn -0.978608 -0.003965 -0.205696
vn -0.978608 -0.003965 -0.205696
vn -0.978608 -0.003965 -0.205696
vn 0.842924 0.026231 -0.537393
vn 0.842924 0.026231 -0.537393
vn 0.842924 0.026231 -0.537393
vn 0.842924 0.026231 -0.537393
vn 0.842924 0.026231 -0.537393
vn 0.842924 0.026231 -0.537393
vn 0.127848 0.739633 -0.660756
vn 0.127848 0.739633 -0.660756
vn 0.127848 0.739633 -0.660756
vn 0.127848 0.739633 -0.660756
vn 0.127848 0.739633 -0.660756
vn 0.127848 0.739633 -0.660756
vn -0.494408 -0.002162 -0.869227
vn -0.494408 -0.002162 -0.869227
vn -0.494408 -0.002162 -0.869227
vn -0.494408 -0.002162 -0.869227
vn -0.494408 -0.002162 -0.869227
vn -0.494408 -0.002162 -0.869227
vn 0.304772 -0.014458 -0.952316
vn 0.304772 -0.014458 -0.952316
vn 0.304772 -0.014458 -0.952316
vn 0.304772 -0.014458 -0.952316
usemtl trunk
f 183//183 2//2 4//4
f 2//2 183//183 182//182
f 6//6 183//183 4//4
f 183//183 6//6 185//185
f 6//6 187//187 185//185
f 187//187 6//6 8//8
f 8//8 189//189 187//187
f 189//189 8//8 10//10
f 12//12 189//189 10//10
f 189//189 12//12 191//191
f 193//193 12//12 14//14
f 12//12 193//193 191//191
usemtl trunkspots
f 34//34 23//23 24//24
f 23//23 34//34 33//33
usemtl trunk
f 195//195 14//14 16//16
f 14//14 195//195 193//193
f 182//182 16//16 2//2
f 16//16 182//182 195//195
f 7//7 240//240 5//5
f 5//5 240//240 239//239
f 25//25 58//58 32//32
f 32//32 58//58 57//57
f 19//19 35//35 18//18
f 35//35 19//19 36//36
f 21//21 22//22 38//38
f 21//21 38//38 37//37
f 17//17 34//34 24//24
f 34//34 17//17 39//39
f 17//17 68//68 39//39
f 68//68 17//17 66//66
f 20//20 36//36 19//19
f 36//36 20//20 40//40
f 33//33 22//22 23//23
f 22//22 33//33 38//38
f 20//20 21//21 37//37
f 20//20 37//37 40//40
f 31//31 25//25 32//32
f 26//26 30//30 29//29
f 25//25 30//30 26//26
f 30//30 25//25 31//31
f 29//29 27//27 26//26
f 27//27 29//29 28//28
f 31//31 60//60 30//30
f 30//30 60//60 59//59
f 29//29 61//61 28//28
f 61//61 29//29 62//62
f 63//63 27//27 64//64
f 27//27 63//63 26//26
f 32//32 57//57 31//31
f 31//31 57//57 60//60
f 30//30 59//59 29//29
f 59//59 62//62 29//29
f 64//64 28//28 61//61
f 28//28 64//64 27//27
f 26//26 58//58 25//25
f 58//58 26//26 63//63
f 37//37 202//202 40//40
f 202//202 211//211 40//40
f 33//33 198//198 38//38
f 38//38 198//198 207//207
f 40//40 205//205 36//36
f 205//205 40//40 211//211
f 35//35 209//209 39//39
f 209//209 35//35 200//200
f 39//39 203//203 34//34
f 203//203 39//39 209//209
f 38//38 207//207 37//37
f 207//207 202//202 37//37
f 36//36 200//200 35//35
f 200//200 36//36 205//205
f 34//34 203//203 33//33
f 33//33 203//203 198//198
f 46//46 41//41 77//77
f 46//46 77//77 88//88
f 42//42 90//90 47//47
f 90//90 42//42 79//79
f 43//43 94//94 48//48
f 94//94 43//43 95//95
f 41//41 83//83 77//77
f 41//41 44//44 83//83
usemtl trunkspots
f 90//90 44//44 47//47
f 44//44 90//90 83//83
usemtl trunk
f 45//45 79//79 42//42
f 79//79 45//45 85//85
f 46//46 81//81 43//43
f 81//81 46//46 88//88
f 48//48 85//85 45//45
f 85//85 48//48 92//92
f 56//56 228//228 227//227
f 228//228 56//56 49//49
f 55//55 227//227 226//226
f 227//227 55//55 56//56
f 54//54 226//226 225//225
f 226//226 54//54 55//55
f 54//54 224//224 53//53
f 224//224 54//54 225//225
f 53//53 223//223 52//52
f 223//223 53//53 224//224
f 52//52 222//222 51//51
f 222//222 52//52 223//223
usemtl trunkspots
f 51//51 221//221 50//50
f 221//221 51//51 222//222
f 50//50 228//228 49//49
f 228//228 50//50 221//221
usemtl trunk
f 17//17 58//58 18//18
f 63//63 18//18 58//58
f 19//19 61//61 20//20
f 61//61 19//19 64//64
f 59//59 21//21 62//62
f 21//21 59//59 22//22
f 57//57 24//24 60//60
f 60//60 24//24 23//23
f 18//18 64//64 19//19
f 64//64 18//18 63//63
f 62//62 20//20 61//61
f 20//20 62//62 21//21
f 60//60 23//23 59//59
f 59//59 23//23 22//22
f 24//24 57//57 17//17
f 58//58 17//17 57//57
f 73//73 72//72 74//74
f 72//72 73//73 70//70
f 35//35 67//67 18//18
f 18//18 67//67 65//65
f 67//67 39//39 68//68
f 39//39 67//67 35//35
f 17//17 18//18 65//65
f 17//17 65//65 66//66
f 70//70 134//134 72//72
f 136//136 72//72 134//134
f 75//75 69//69 73//73
f 70//70 73//73 69//69
f 71//71 74//74 72//72
f 74//74 71//71 76//76
f 69//69 75//75 71//71
f 71//71 75//75 76//76
f 67//67 76//76 65//65
f 65//65 76//76 75//75
f 76//76 68//68 74//74
f 68//68 76//76 67//67
f 73//73 66//66 75//75
f 66//66 65//65 75//75
f 66//66 74//74 68//68
f 74//74 66//66 73//73
f 173//173 10//10 176//176
f 176//176 10//10 8//8
f 113//113 92//92 116//116
f 92//92 113//113 85//85
f 87//87 179//179 82//82
f 179//179 12//12 82//82
f 88//88 114//114 81//81
f 81//81 114//114 111//111
f 175//175 6//6 80//80
f 6//6 175//175 176//176
f 6//6 176//176 8//8
f 175//175 80//80 86//86
f 85//85 113//113 79//79
f 79//79 113//113 110//110
f 89//89 178//178 84//84
f 178//178 89//89 180//180
f 90//90 112//112 83//83
f 112//112 90//90 115//115
f 84//84 178//178 78//78
f 78//78 178//178 177//177
f 83//83 112//112 77//77
f 77//77 112//112 109//109
f 174//174 91//91 82//82
f 12//12 174//174 82//82
f 173//173 12//12 10//10
f 174//174 12//12 173//173
f 81//81 111//111 92//92
f 92//92 111//111 116//116
f 80//80 180//180 89//89
f 180//180 80//80 6//6
f 79//79 110//110 90//90
f 110//110 115//115 90//90
f 78//78 177//177 87//87
f 177//177 179//179 87//87
f 77//77 114//114 88//88
f 114//114 77//77 109//109
f 97//97 100//100 214//214
f 214//214 213//213 97//97
f 81//81 96//96 43//43
f 43//43 96//96 95//95
usemtl trunkspots
f 96//96 81//81 93//93
f 81//81 92//92 93//93
usemtl trunk
f 48//48 93//93 92//92
f 93//93 48//48 94//94
f 99//99 102//102 98//98
f 102//102 99//99 103//103
usemtl trunkspots
f 98//98 215//215 99//99
f 215//215 98//98 216//216
usemtl trunk
f 214//214 100//100 215//215
f 215//215 100//100 99//99
f 216//216 97//97 213//213
f 97//97 216//216 98//98
f 107//107 103//103 108//108
f 104//104 108//108 103//103
f 100//100 104//104 99//99
f 99//99 104//104 103//103
f 98//98 101//101 97//97
f 101//101 98//98 102//102
f 104//104 97//97 101//101
f 97//97 104//104 100//100
f 107//107 105//105 106//106
f 105//105 107//107 108//108
f 102//102 105//105 101//101
f 105//105 102//102 106//106
f 108//108 101//101 105//105
f 101//101 108//108 104//104
f 103//103 107//107 102//102
f 106//106 102//102 107//107
f 109//109 78//78 114//114
f 114//114 78//78 87//87
f 80//80 119//119 110//110
f 110//110 119//119 120//120
f 111//111 91//91 116//116
f 91//91 111//111 82//82
f 78//78 109//109 84//84
f 84//84 109//109 112//112
f 113//113 86//86 110//110
f 110//110 86//86 80//80
usemtl trunkspots
f 114//114 82//82 111//111
f 82//82 114//114 87//87
usemtl trunk
f 116//116 91//91 113//113
f 91//91 86//86 113//113
f 121//121 117//117 124//124
f 117//117 120//120 124//124
f 128//128 218//218 127//127
f 127//127 218//218 217//217
f 123//123 118//118 122//122
f 118//118 123//123 119//119
f 123//123 120//120 119//119
f 120//120 123//123 124//124
f 117//117 122//122 118//118
f 122//122 117//117 121//121
f 125//125 130//130 126//126
f 130//130 125//125 129//129
f 126//126 219//219 125//125
f 219//219 126//126 220//220
f 218//218 128//128 219//219
f 125//125 219//219 128//128
f 127//127 220//220 126//126
f 220//220 127//127 217//217
f 132//132 130//130 129//129
f 130//130 132//132 131//131
f 128//128 132//132 125//125
f 129//129 125//125 132//132
f 131//131 126//126 130//130
f 126//126 131//131 127//127
f 132//132 128//128 131//131
f 131//131 128//128 127//127
f 115//115 84//84 112//112
f 84//84 115//115 89//89
f 119//119 89//89 118//118
f 89//89 119//119 80//80
usemtl trunkspots
f 115//115 118//118 89//89
f 118//118 115//115 117//117
usemtl trunk
f 120//120 115//115 110//110
f 115//115 120//120 117//117
f 136//136 133//133 135//135
f 133//133 136//136 134//134
f 134//134 69//69 133//133
f 69//69 134//134 70//70
f 72//72 135//135 71//71
f 135//135 72//72 136//136
f 133//133 69//69 135//135
f 135//135 69//69 71//71
usemtl leaves1
f 137//137 138//138 139//139
f 138//138 137//137 142//142
f 137//137 139//139 140//140
f 137//137 140//140 141//141
f 137//137 141//141 142//142
f 138//138 142//142 147//147
f 139//139 138//138 143//143
f 140//140 139//139 144//144
f 141//141 140//140 145//145
f 142//142 141//141 146//146
f 138//138 147//147 143//143
f 139//139 143//143 144//144
f 140//140 144//144 145//145
f 141//141 145//145 146//146
f 142//142 146//146 147//147
f 143//143 147//147 148//148
f 144//144 143//143 148//148
f 145//145 144//144 148//148
f 146//146 145//145 148//148
f 147//147 146//146 148//148
f 149//149 150//150 151//151
f 150//150 149//149 154//154
f 149//149 151//151 152//152
f 149//149 152//152 153//153
f 149//149 153//153 154//154
f 150//150 154//154 159//159
f 151//151 150//150 155//155
f 152//152 151//151 156//156
f 153//153 152//152 157//157
f 154//154 153//153 158//158
f 150//150 159//159 155//155
f 151//151 155//155 156//156
f 152//152 156//156 157//157
f 153//153 157//157 158//158
f 154//154 158//158 159//159
f 155//155 159//159 160//160
f 156//156 155//155 160//160
f 157//157 156//156 160//160
f 158//158 157//157 160//160
f 159//159 158//158 160//160
f 161//161 162//162 163//163
f 162//162 161//161 166//166
f 161//161 163//163 164//164
f 161//161 164//164 165//165
f 161//161 165//165 166//166
f 162//162 166//166 171//171
f 163//163 162//162 167//167
f 164//164 163//163 168//168
f 165//165 164//164 169//169
f 166//166 165//165 170//170
f 162//162 171//171 167//167
f 163//163 167//167 168//168
f 164//164 168//168 169//169
f 165//165 169//169 170//170
f 166//166 170//170 171//171
f 167//167 171//171 172//172
f 168//168 167//167 172//172
f 169//169 168//168 172//172
f 170//170 169//169 172//172
f 171//171 170//170 172//172
usemtl trunkspots
f 174//174 176//176 175//175
f 176//176 174//174 173//173
usemtl trunk
f 91//91 175//175 86//86
f 175//175 91//91 174//174
usemtl trunkspots
f 177//177 14//14 179//179
f 14//14 177//177 16//16
usemtl trunk
f 6//6 4//4 180//180
usemtl trunkspots
f 178//178 16//16 177//177
f 16//16 178//178 2//2
usemtl trunk
f 178//178 180//180 4//4
f 178//178 4//4 2//2
f 14//14 12//12 179//179
f 56//56 181//181 49//49
f 181//181 56//56 196//196
f 181//181 195//195 182//182
f 195//195 181//181 196//196
f 196//196 56//56 229//229
f 196//196 229//229 194//194
f 55//55 229//229 56//56
f 196//196 193//193 195//195
f 193//193 196//196 194//194
usemtl trunkspots
f 54//54 229//229 55//55
f 229//229 54//54 230//230
usemtl trunk
f 194//194 191//191 193//193
f 191//191 194//194 192//192
f 190//190 230//230 53//53
f 230//230 190//190 192//192
f 53//53 230//230 54//54
usemtl trunkspots
f 191//191 190//190 189//189
f 190//190 191//191 192//192
usemtl trunk
f 188//188 53//53 52//52
f 53//53 188//188 190//190
f 189//189 188//188 187//187
f 188//188 189//189 190//190
f 188//188 51//51 186//186
f 51//51 188//188 52//52
f 187//187 186//186 185//185
f 186//186 187//187 188//188
f 186//186 50//50 184//184
f 50//50 186//186 51//51
f 185//185 184//184 183//183
f 184//184 185//185 186//186
f 49//49 184//184 50//50
f 184//184 49//49 181//181
f 184//184 182//182 183//183
f 182//182 184//184 181//181
f 204//204 41//41 197//197
f 197//197 41//41 46//46
f 198//198 203//203 204//204
f 198//198 204//204 197//197
f 206//206 47//47 199//199
f 47//47 206//206 42//42
usemtl trunkspots
f 205//205 199//199 200//200
f 199//199 205//205 206//206
usemtl trunk
f 208//208 43//43 201//201
f 43//43 48//48 201//201
f 202//202 207//207 208//208
f 208//208 201//201 202//202
f 210//210 44//44 204//204
f 204//204 44//44 41//41
f 209//209 204//204 203//203
f 204//204 209//209 210//210
f 199//199 47//47 210//210
f 210//210 47//47 44//44
f 200//200 210//210 209//209
f 210//210 200//200 199//199
f 212//212 42//42 206//206
f 42//42 212//212 45//45
f 211//211 206//206 205//205
f 206//206 211//211 212//212
f 197//197 43//43 208//208
f 43//43 197//197 46//46
usemtl trunkspots
f 198//198 197//197 207//207
f 207//207 197//197 208//208
usemtl trunk
f 45//45 201//201 48//48
f 201//201 45//45 212//212
f 202//202 201//201 211//211
f 201//201 212//212 211//211
f 94//94 213//213 93//93
f 213//213 94//94 216//216
f 214//214 95//95 96//96
f 95//95 214//214 215//215
f 216//216 95//95 215//215
f 95//95 216//216 94//94
f 214//214 96//96 213//213
f 96//96 93//93 213//213
f 217//217 122//122 220//220
f 122//122 217//217 123//123
f 219//219 121//121 218//218
f 121//121 124//124 218//218
f 220//220 121//121 219//219
f 121//121 220//220 122//122
usemtl trunkspots
f 217//217 124//124 123//123
f 124//124 217//217 218//218
usemtl trunk
f 3//3 228//228 221//221
f 228//228 3//3 1//1
f 222//222 3//3 221//221
f 3//3 222//222 5//5
f 222//222 236//236 5//5
f 236//236 222//222 223//223
f 5//5 236//236 7//7
f 235//235 7//7 236//236
f 7//7 235//235 9//9
f 225//225 235//235 224//224
f 11//11 235//235 225//225
f 235//235 11//11 9//9
f 11//11 231//231 233//233
f 231//231 11//11 225//225
f 225//225 226//226 231//231
f 13//13 11//11 233//233
f 234//234 13//13 233//233
f 13//13 234//234 15//15
f 232//232 1//1 234//234
f 234//234 1//1 15//15
f 228//228 1//1 232//232
f 228//228 232//232 227//227
f 194//194 230//230 192//192
f 230//230 194//194 229//229
f 227//227 231//231 226//226
f 231//231 227//227 232//232
usemtl trunkspots
f 233//233 232//232 234//234
f 232//232 233//233 231//231
f 224//224 236//236 223//223
f 236//236 224//224 235//235
usemtl trunk
f 239//239 244//244 237//237
f 239//239 237//237 238//238
f 240//240 244//244 239//239
f 241//241 243//243 240//240
f 243//243 241//241 242//242
f 244//244 240//240 243//243
f 13//13 243//243 11//11
f 11//11 243//243 242//242
f 9//9 241//241 7//7
f 7//7 241//241 240//240
f 15//15 244//244 13//13
f 13//13 244//244 243//243
f 5//5 239//239 3//3
f 3//3 239//239 238//238
f 11//11 242//242 9//9
f 9//9 242//242 241//241
f 1//1 237//237 15//15
f 15//15 237//237 244//244
f 3//3 238//238 1//1
f 1//1 238//238 237//237
