# 
# Wavefront OBJ file
# Created with Kaydara FBX
# 
mtllib boat2_model.mtl

g paperBoat2_model
v 2.757322 4.022001 -2.470226
v 0.000000 25.341948 -3.075521
v 0.000000 -0.128753 -6.695412
v 0.000000 8.114929 -24.522355
v -2.757322 4.022001 -2.470226
v 5.445239 8.616248 -0.000001
v 5.996303 8.616248 -0.000001
v 0.000000 8.616252 26.639767
v -5.445239 8.616248 -0.000001
v 0.000000 8.616243 -26.639770
v 0.000000 -0.000002 -15.039289
v 0.000000 0.000002 15.039289
v 0.000000 -0.596155 17.106083
v 0.000000 -0.596161 -17.106083
v -5.996303 8.616248 -0.000001
v 0.000000 8.616243 -28.395198
v 0.000000 8.616252 28.395195
v -0.469359 8.054422 -23.964545
v -0.217476 32.056447 -24.180449
v -0.469359 8.054422 -24.778922
v -0.217476 32.056447 -24.563021
v 0.480746 8.054422 -23.964545
v 0.228863 32.056447 -24.180449
v 0.480746 8.054422 -24.778922
v 0.228863 32.056447 -24.563021
v -0.303072 30.564230 -23.815722
v -0.529234 21.532389 -23.815720
v -0.119763 24.804413 -39.922006
v 0.189317 24.804413 -39.922006
v 0.372625 30.564230 -23.815722
v 0.598788 21.532389 -23.815720
v -2.238818 3.050052 1.993536
v 0.000000 16.278807 2.357163
v 0.000000 0.057035 3.621911
v 0.000001 -0.111766 15.571886
v 2.238818 3.284807 1.993536
vn 0.987102 0.124816 -0.100258
vn 0.987102 0.124816 -0.100258
vn 0.987102 0.124816 -0.100258
vn -0.793819 -0.085571 0.602103
vn -0.793819 -0.085571 0.602103
vn -0.793819 -0.085571 0.602103
vn -0.987102 0.124816 -0.100258
vn -0.987102 0.124816 -0.100258
vn -0.987102 0.124816 -0.100258
vn 0.793819 -0.085571 0.602103
vn 0.793819 -0.085571 0.602103
vn 0.793819 -0.085571 0.602103
vn -0.945962 0.260326 0.193357
vn -0.945962 0.260326 0.193357
vn -0.945962 0.260326 0.193357
vn -0.945962 0.260326 -0.193357
vn -0.945962 0.260326 -0.193357
vn -0.945962 0.260326 -0.193357
vn -0.845338 0.534231 -0.000000
vn -0.845338 0.534231 -0.000000
vn -0.845338 0.534231 -0.000000
vn 0.948492 -0.245448 -0.200296
vn 0.948492 -0.245448 -0.200296
vn 0.948492 -0.245448 -0.200296
vn 0.948492 -0.245448 0.200296
vn 0.948492 -0.245448 0.200296
vn 0.948492 -0.245448 0.200296
vn 0.838101 -0.545515 0.000000
vn 0.838101 -0.545515 0.000000
vn 0.838101 -0.545515 0.000000
vn 0.000000 1.000000 -0.000000
vn 0.000000 1.000000 -0.000000
vn 0.000000 1.000000 -0.000000
vn 0.000000 1.000000 -0.000000
vn 0.000000 1.000000 -0.000000
vn 0.000000 1.000000 -0.000000
usemtl Boat2_color
f 2//2 1//1 4//4
f 2//2 3//3 1//1
f 2//2 4//4 5//5
f 2//2 5//5 3//3
f 11//11 6//6 10//10
f 8//8 6//6 12//12
f 11//11 12//12 6//6
f 14//14 16//16 7//7
f 17//17 13//13 7//7
f 14//14 7//7 13//13
f 7//7 16//16 10//10
f 7//7 10//10 6//6
f 6//6 8//8 7//7
f 17//17 7//7 8//8
f 11//11 10//10 9//9
f 8//8 12//12 9//9
f 11//11 9//9 12//12
f 14//14 15//15 16//16
f 17//17 15//15 13//13
f 14//14 13//13 15//15
f 16//16 15//15 10//10
f 9//9 10//10 15//15
f 15//15 17//17 8//8
f 15//15 8//8 9//9
usemtl Boat2_stand
f 18//18 21//21 20//20
f 21//21 18//18 19//19
f 20//20 25//25 24//24
f 25//25 20//20 21//21
f 22//22 25//25 23//23
f 25//25 22//22 24//24
f 18//18 23//23 19//19
f 23//23 18//18 22//22
f 21//21 19//19 25//25
f 25//25 19//19 23//23
usemtl Boat2_flag
f 26//26 28//28 27//27
f 30//30 31//31 29//29
f 30//30 27//27 31//31
f 27//27 30//30 26//26
f 29//29 26//26 30//30
f 26//26 29//29 28//28
usemtl Boat2_color
f 33//33 32//32 35//35
f 33//33 34//34 32//32
f 33//33 35//35 36//36
f 33//33 36//36 34//34
