# 
# Wavefront material file
# Created with Kaydara FBX
# 

newmtl oilTower_color2
Ka 0.000000 0.000000 0.000000
Kd 0.307499 0.307499 0.307499
Ks 0.250000 0.250000 0.250000
illum 2
Ns 9.607843
Tr 1.000000

newmtl oilTower_color3
Ka 0.000000 0.000000 0.000000
Kd 0.007215 0.007215 0.007215
Ks 0.250000 0.250000 0.250000
illum 2
Ns 9.607843
Tr 1.000000

newmtl oilTower_color
Ka 0.000000 0.000000 0.000000
Kd 0.147575 0.010090 0.006371
Ks 0.250000 0.250000 0.250000
illum 2
Ns 9.607843
Tr 1.000000

newmtl buoy_color
Ka 0.000000 0.000000 0.000000
Kd 0.000000 0.000450 0.422175
Ks 0.250000 0.250000 0.250000
illum 2
Ns 9.607843
Tr 1.000000

newmtl buoy_handle
Ka 0.000000 0.000000 0.000000
Kd 0.343380 0.343380 0.343380
Ks 0.250000 0.250000 0.250000
illum 2
Ns 9.607843
Tr 1.000000

newmtl buoy_cubes
Ka 0.000000 0.000000 0.000000
Kd 0.095420 0.095420 0.095420
Ks 0.250000 0.250000 0.250000
illum 2
Ns 9.607843
Tr 1.000000
