# 
# Wavefront material file
# Created with Kaydara FBX
# 

newmtl Submarine1_color
Ka 0.000000 0.000000 0.000000
Kd 0.800000 0.800000 0.800000
Ks 0.250000 0.250000 0.250000
illum 2
Ns 9.607843
Tr 1.000000

newmtl Submarine1_flag
Ka 0.000000 0.000000 0.000000
Kd 0.640000 0.014206 0.000000
Ks 0.250000 0.250000 0.250000
illum 2
Ns 9.607843
Tr 1.000000
