# 
# Wavefront material file
# Created with Kaydara FBX
# 

newmtl treeTower_leave
Ka 0.000000 0.000000 0.000000
Kd 0.168570 0.640000 0.088645
Ks 0.250000 0.250000 0.250000
illum 2
Ns 9.607843
Tr 1.000000

newmtl treeTower_color
Ka 0.000000 0.000000 0.000000
Kd 0.430580 0.203955 0.119739
Ks 0.250000 0.250000 0.250000
illum 2
Ns 9.607843
Tr 1.000000

newmtl treeTower_dirt
Ka 0.000000 0.000000 0.000000
Kd 0.106291 0.066786 0.037543
Ks 0.250000 0.250000 0.250000
illum 2
Ns 9.607843
Tr 1.000000

newmtl treeTower_dirt2
Ka 0.000000 0.000000 0.000000
Kd 0.061264 0.026731 0.012695
Ks 0.250000 0.250000 0.250000
illum 2
Ns 9.607843
Tr 1.000000

newmtl treeTower_trunk
Ka 0.000000 0.000000 0.000000
Kd 0.143089 0.079554 0.014928
Ks 0.250000 0.250000 0.250000
illum 2
Ns 9.607843
Tr 1.000000

newmtl buoy_color
Ka 0.000000 0.000000 0.000000
Kd 0.000000 0.000450 0.422175
Ks 0.250000 0.250000 0.250000
illum 2
Ns 9.607843
Tr 1.000000

newmtl buoy_handle
Ka 0.000000 0.000000 0.000000
Kd 0.343380 0.343380 0.343380
Ks 0.250000 0.250000 0.250000
illum 2
Ns 9.607843
Tr 1.000000

newmtl buoy_cubes
Ka 0.000000 0.000000 0.000000
Kd 0.095420 0.095420 0.095420
Ks 0.250000 0.250000 0.250000
illum 2
Ns 9.607843
Tr 1.000000
